{
    "swagger": "2.0",
    "info": {
        "version": "1.0.0",
        "title": "Customer application",
        "description": "Customer application of nodev12.16.0 with swagger implementation",
        "license": {
            "name": "MIT",
            "url": "https://opensource.org/licenses/MIT"
        }
    },
    "host": "localhost:4000",
    "basePath": "/api/",
    "schemes": [
        "http"
    ],
    "consumes": [
        "application/json"
    ],
    "produces": [
        "application/json"
    ],
    "paths": {},
    "definitions": {}
}