{
    "paths": {
        "/register": {
            "post": {
                "tags": [
                    "Users"
                ],
                "description": "create new user",
                "parameters": [
                    {
                        "name": "user",
                        "in": "body",
                        "description": "User that we want to create",
                        "schema": {
                            "$ref": "#/definitions/Register"
                        }
                    }
                ],
                "produces": [
                    "application/json"
                ],
                "responses": {
                    "200": {
                        "description": "New user is created",
                        "schema": {
                            "$ref": "#/definitions/Register"
                        }
                    }
                }
            }
        },
        "/login": {
            "post": {
                "tags": [
                    "Users"
                ],
                "description": "Login",
                "parameters": [
                    {
                        "name": "body",
                        "in": "body",
                        "description": "Login",
                        "schema": {
                            "$ref": "#/definitions/Login"
                        }
                    }
                ],
                "produces": [
                    "application/json"
                ],
                "responses": {
                    "200": {
                        "description": "Login.",
                        "schema": {
                            "$ref": "#/definitions/Login"
                        }
                    }
                }
            }
        }
    },
    "definitions": {
        "Register": {
            "required": [
                "emailId",
                "fullName",
                "password"
            ],
            "properties": {
                "fullName": {
                    "example": "Lakshmi Matta",
                    "type": "string"
                },
                "emailId": {
                    "type": "string",
                    "example": "lakshmi@grr.la",
                    "uniqueItems": true
                },
                "password": {
                    "type": "string",
                    "example": "Test@123"
                }
            }
        },
        "Login": {
            "required": [
                "emailId",
                "password"
            ],
            "properties": {
                "emailId": {
                    "type": "string",
                    "example": "lakshmi@grr.la",
                    "uniqueItems": true
                },
                "password": {
                    "type": "string",
                    "example": "Test@123"
                }
            }
        }
    }
}